{
    "code": 2000,
    "message": "ok",
    "result": {
        "data": [
            {
                "action": "export",
                "category": 1007,
                "code": "sys:menu:export",
                "createAt": "0",
                "creator": 0,
                "id": 1024,
                "memo": "",
                "name": "导出菜单信息",
                "nameEn": "Export Menu",
                "status": 2,
                "updateAt": "0",
                "updator": 0
            },
            {
                "action": "add",
                "category": 1008,
                "code": "sys:depart:add",
                "createAt": "0",
                "creator": 0,
                "id": 1025,
                "memo": "",
                "name": "新增部门信息",
                "nameEn": "Add Department",
                "status": 2,
                "updateAt": "0",
                "updator": 0
            },
            {
                "action": "edit",
                "category": 1008,
                "code": "sys:depart:edit",
                "createAt": "0",
                "creator": 0,
                "id": 1026,
                "memo": "",
                "name": "修改部门信息",
                "nameEn": "Edit Department",
                "status": 2,
                "updateAt": "0",
                "updator": 0
            },
            {
                "action": "query",
                "category": 1008,
                "code": "sys:depart:query",
                "createAt": "0",
                "creator": 0,
                "id": 1027,
                "memo": "",
                "name": "查询部门信息",
                "nameEn": "Get Department",
                "status": 2,
                "updateAt": "0",
                "updator": 0
            },
            {
                "action": "delete",
                "category": 1008,
                "code": "sys:depart:delete",
                "createAt": "0",
                "creator": 0,
                "id": 1028,
                "memo": "",
                "name": "删除部门信息",
                "nameEn": "Delete Department",
                "status": 2,
                "updateAt": "0",
                "updator": 0
            },
            {
                "action": "import",
                "category": 1008,
                "code": "sys:depart:import",
                "createAt": "0",
                "creator": 0,
                "id": 1029,
                "memo": "",
                "name": "导入部门信息",
                "nameEn": "Import Department",
                "status": 2,
                "updateAt": "0",
                "updator": 0
            },
            {
                "action": "export",
                "category": 1008,
                "code": "sys:depart:export",
                "createAt": "0",
                "creator": 0,
                "id": 1030,
                "memo": "",
                "name": "导出部门信息",
                "nameEn": "Export Department",
                "status": 2,
                "updateAt": "0",
                "updator": 0
            },
            {
                "action": "add",
                "category": 1009,
                "code": "sys:role:add",
                "createAt": "0",
                "creator": 0,
                "id": 1031,
                "memo": "",
                "name": "新增系统角色",
                "nameEn": "Add Role",
                "status": 2,
                "updateAt": "0",
                "updator": 0
            },
            {
                "action": "edit",
                "category": 1009,
                "code": "sys:role:edit",
                "createAt": "0",
                "creator": 0,
                "id": 1032,
                "memo": "",
                "name": "修改系统角色",
                "nameEn": "Edit Role",
                "status": 2,
                "updateAt": "0",
                "updator": 0
            },
            {
                "action": "query",
                "category": 1009,
                "code": "sys:role:query",
                "createAt": "0",
                "creator": 0,
                "id": 1033,
                "memo": "",
                "name": "查询系统角色",
                "nameEn": "Get Role",
                "status": 2,
                "updateAt": "0",
                "updator": 0
            },
            {
                "action": "delete",
                "category": 1009,
                "code": "sys:role:delete",
                "createAt": "0",
                "creator": 0,
                "id": 1034,
                "memo": "",
                "name": "删除系统角色",
                "nameEn": "Delete Role",
                "status": 2,
                "updateAt": "0",
                "updator": 0
            },
            {
                "action": "import",
                "category": 1009,
                "code": "sys:role:import",
                "createAt": "0",
                "creator": 0,
                "id": 1035,
                "memo": "",
                "name": "导入系统角色",
                "nameEn": "Import Role",
                "status": 2,
                "updateAt": "0",
                "updator": 0
            },
            {
                "action": "export",
                "category": 1009,
                "code": "sys:role:export",
                "createAt": "0",
                "creator": 0,
                "id": 1036,
                "memo": "",
                "name": "导出系统角色",
                "nameEn": "Export Role",
                "status": 2,
                "updateAt": "0",
                "updator": 0
            },
            {
                "action": "perm",
                "category": 1009,
                "code": "sys:role:perm",
                "createAt": "0",
                "creator": 0,
                "id": 1037,
                "memo": "",
                "name": "授权系统角色",
                "nameEn": "Dipatch Permission",
                "status": 2,
                "updateAt": "0",
                "updator": 0
            },
            {
                "action": "add",
                "category": 1010,
                "code": "sys:user:add",
                "createAt": "0",
                "creator": 0,
                "id": 1038,
                "memo": "",
                "name": "新增系统用户",
                "nameEn": "Add User",
                "status": 2,
                "updateAt": "0",
                "updator": 0
            },
            {
                "action": "edit",
                "category": 1010,
                "code": "sys:user:edit",
                "createAt": "0",
                "creator": 0,
                "id": 1039,
                "memo": "",
                "name": "修改系统用户",
                "nameEn": "Edit User",
                "status": 2,
                "updateAt": "0",
                "updator": 0
            },
            {
                "action": "query",
                "category": 1010,
                "code": "sys:user:query",
                "createAt": "0",
                "creator": 0,
                "id": 1040,
                "memo": "",
                "name": "查询系统用户",
                "nameEn": "Get User",
                "status": 2,
                "updateAt": "0",
                "updator": 0
            },
            {
                "action": "delete",
                "category": 1010,
                "code": "sys:user:delete",
                "createAt": "0",
                "creator": 0,
                "id": 1041,
                "memo": "",
                "name": "删除系统用户",
                "nameEn": "Delete User",
                "status": 2,
                "updateAt": "0",
                "updator": 0
            },
            {
                "action": "import",
                "category": 1010,
                "code": "sys:user:import",
                "createAt": "0",
                "creator": 0,
                "id": 1042,
                "memo": "",
                "name": "导入系统用户",
                "nameEn": "Import User",
                "status": 2,
                "updateAt": "0",
                "updator": 0
            },
            {
                "action": "export",
                "category": 1010,
                "code": "sys:user:export",
                "createAt": "0",
                "creator": 0,
                "id": 1043,
                "memo": "",
                "name": "导出系统用户",
                "nameEn": "Export User",
                "status": 2,
                "updateAt": "0",
                "updator": 0
            }
        ],
        "offset": 0,
        "pageCount": 3,
        "pageNo": 1,
        "pageSize": 20,
        "totalCount": 45
    }
}